[
   "5d30c1313e80a19ff145597a1d6137c95a5044a9",
   "08f6eaeadce111c5f60f3725ff9689799febda0e",
   "79d4a2d1a92aa613f92e6265ce1761ca513374c2",
   "f7ec9f85ed9a86220aa2b90d10d78d2ad892463a",
   "ae820167f6338c234d49601aa292659007813b75",
   "f44894d07507e762ccaa634be3631a843d4f580c",
   "bbb98b75cb3efe0c666a9150373fdcb498ed922f",
   "3b45723d231d2576612c3c760c0b590309ee7c1e",
   "2cbcfe9e9dbd9349d16828fad65cb0cf2ccc7cbe",
   "c8a2c35159dc6dcab408ee3616cf42f26f316bc9",
   "21a3fc058aca093fe37e2f93d386e8091483e305",
   "8bb56639323eba08cc043c213bd11ea283041f7a",
   "f7d3c829e7cf2b62d321e2a31ec2254597f9060e",
   "1bbe3a4c082b96487c8227e2df1deb1c24ed29b6"
]
